<?xml version="1.0" encoding="UTF-8"?>
<svg enable-background="new 0 0 400 400" version="1.1" viewBox="0 0 400 400" xml:space="preserve" xmlns="http://www.w3.org/2000/svg">
<style type="text/css">
	.st0{fill:#FFFFFF;}
	.st1{fill:#475993;}
</style>
<path class="st0" d="m350 400h-300c-27.6 0-50-22.4-50-50v-300c0-27.6 22.4-50 50-50h300c27.6 0 50 22.4 50 50v300c0 27.6-22.4 50-50 50z"/>
<path class="st1" d="M350,0H50C22.4,0,0,22.4,0,50v300c0,27.6,22.4,50,50,50h148l0.2-142.9h-37.1c-4.8,0-8.7-3.9-8.8-8.7l-0.2-46.1  c0-4.9,3.9-8.8,8.8-8.8H198V149c0-51.7,31.6-79.8,77.6-79.8h37.8c4.8,0,8.8,3.9,8.8,8.8v38.9c0,4.8-3.9,8.8-8.8,8.8h-23.2  c-25.1,0-29.9,11.9-29.9,29.4v38.5h55.1c5.2,0,9.3,4.6,8.7,9.8l-5.5,46.1c-0.5,4.4-4.3,7.7-8.7,7.7h-49.4L260.4,400H350  c27.6,0,50-22.4,50-50V50C400,22.4,377.6,0,350,0z"/>
</svg>
