<?xml version="1.0" encoding="UTF-8"?>
<svg enable-background="new 0 0 120 120" version="1.1" viewBox="0 0 120 120" xml:space="preserve" xmlns="http://www.w3.org/2000/svg">
<style type="text/css">
	.st0{fill:#3376CD;}
	.st1{fill:#F97873;}
</style>
<path class="st0" d="m64.5 109c-0.2 0-0.4 0-0.6-0.1-0.6-0.2-0.9-0.8-0.9-1.4v-13.5h-5.5c-2.5 0-4.5-2-4.5-4.5v-19c0-0.8 0.7-1.5 1.5-1.5s1.5 0.7 1.5 1.5v19c0 0.8 0.7 1.5 1.5 1.5h7c0.8 0 1.5 0.7 1.5 1.5v11.4l12.4-12.4c0.3-0.3 0.7-0.4 1.1-0.4h29c0.8 0 1.5-0.7 1.5-1.5v-38c0-0.8-0.7-1.5-1.5-1.5h-35c-0.8 0-1.5-0.7-1.5-1.5s0.7-1.5 1.5-1.5h35c2.5 0 4.5 2 4.5 4.5v38c0 2.5-2 4.5-4.5 4.5h-28.4l-14.6 14.6c-0.2 0.1-0.6 0.3-1 0.3zm38.5-38.5c0-0.8-0.7-1.5-1.5-1.5h-21c-0.8 0-1.5 0.7-1.5 1.5s0.7 1.5 1.5 1.5h21c0.8 0 1.5-0.7 1.5-1.5zm0-10c0-0.8-0.7-1.5-1.5-1.5h-21c-0.8 0-1.5 0.7-1.5 1.5s0.7 1.5 1.5 1.5h21c0.8 0 1.5-0.7 1.5-1.5zm0 20c0-0.8-0.7-1.5-1.5-1.5h-37c-0.8 0-1.5 0.7-1.5 1.5s0.7 1.5 1.5 1.5h37c0.8 0 1.5-0.7 1.5-1.5zm-42-45c0-0.8-0.7-1.5-1.5-1.5h-36c-0.8 0-1.5 0.7-1.5 1.5s0.7 1.5 1.5 1.5h36c0.8 0 1.5-0.7 1.5-1.5zm0-10c0-0.8-0.7-1.5-1.5-1.5h-36c-0.8 0-1.5 0.7-1.5 1.5s0.7 1.5 1.5 1.5h36c0.8 0 1.5-0.7 1.5-1.5zm-26 20c0-0.8-0.7-1.5-1.5-1.5h-10c-0.8 0-1.5 0.7-1.5 1.5s0.7 1.5 1.5 1.5h10c0.8 0 1.5-0.7 1.5-1.5zm0 10c0-0.8-0.7-1.5-1.5-1.5h-10c-0.8 0-1.5 0.7-1.5 1.5s0.7 1.5 1.5 1.5h10c0.8 0 1.5-0.7 1.5-1.5z"/>
<path class="st1" d="m67.5 10h-52c-3 0-5.5 2.5-5.5 5.5v51c0 3 2.5 5.5 5.5 5.5h5.5v12.5c0 1 0.6 1.9 1.5 2.3 0.3 0.1 0.6 0.2 1 0.2 0.7 0 1.3-0.3 1.8-0.7l14.2-14.3h28c3 0 5.5-2.5 5.5-5.5v-51c0-3-2.5-5.5-5.5-5.5zm0.5 56.5c0 0.3-0.2 0.5-0.5 0.5h-29c-0.7 0-1.3 0.3-1.8 0.7l-10.7 10.8v-9c0-1.4-1.1-2.5-2.5-2.5h-8c-0.3 0-0.5-0.2-0.5-0.5v-51c0-0.3 0.2-0.5 0.5-0.5h52c0.3 0 0.5 0.2 0.5 0.5v51zm-7.7-22.8c1 1 1 2.6 0 3.5l-10 10c-0.5 0.5-1.1 0.7-1.8 0.7s-1.3-0.2-1.8-0.7l-5-5c-1-1-1-2.6 0-3.5 1-1 2.6-1 3.5 0l3.2 3.2 8.2-8.2c1.1-0.9 2.7-0.9 3.7 0z"/>
</svg>
